<?xml version="1.0" encoding="utf-8"?>
<!-- Generator: Adobe Illustrator 24.0.2, SVG Export Plug-In . SVG Version: 6.00 Build 0)  -->
<svg version="1.1" id="Layer_1" xmlns="http://www.w3.org/2000/svg" xmlns:xlink="http://www.w3.org/1999/xlink" x="0px" y="0px"
	 viewBox="0 0 52.55 71.05" style="enable-background:new 0 0 52.55 71.05;" xml:space="preserve">
<style type="text/css">
	.st0{fill-rule:evenodd;clip-rule:evenodd;fill:#F26B21;}
</style>
<path class="st0" d="M28.54,14.84c1.78-1.4,3.77-1.77,5.94-1.32c-0.05,0.46,0.31,0.76,0.65,0.95c1.05,0.59,1.57,1.49,1.8,2.64
	c0.04,0.23,0.3,0.44,0.5,0.61c0.18,0.15,0.42,0.23,0.63,0.36c0.37,0.22,0.32,0.55,0.02,0.71c-0.57,0.31-0.36,0.84-0.38,1.24
	c-0.01,0.42,0.26,0.85,0.37,1.28c0.05,0.21,0.06,0.45,0.01,0.65c-0.14,0.56-0.1,0.66,0.44,0.76c1.36,0.27,2.68,0.7,3.75,1.57
	c0.96,0.78,1.5,1.88,1.62,3.15c0.05,0.54,0.11,1.09,0.26,1.6c0.46,1.61,0.99,3.2,1.46,4.81c0.36,1.21,0.66,2.43,1.01,3.65
	c0.32,1.1,0.27,2.18,0.05,3.29c-0.2,1-0.4,1.99-0.53,3c-0.08,0.57,0,1.17-0.03,1.75c-0.06,1.19-0.34,2.29-1.11,3.27
	c-0.32,0.4-0.45,0.98-0.58,1.5c-0.72,2.98-1.99,5.72-3.73,8.23c-1.14,1.65-2.27,3.3-3.49,4.88c-0.55,0.72-1.32,1.3-2.34,1.17
	c-0.32-0.04-0.67-0.14-0.93-0.32c-1.22-0.86-2.53-1.45-3.99-1.81c-1.03-0.25-1.99-0.77-3.01-1.09c-1.95-0.62-3.9-1.27-5.89-1.73
	c-1-0.23-2.1-0.14-3.15-0.07c-1.28,0.08-2.53,0.38-3.71,0.91c-0.53,0.23-1.02,0.54-1.54,0.77c-0.94,0.43-1.88,0.85-2.83,1.23
	c-0.33,0.13-0.58-0.01-0.61-0.41c-0.01-0.1-0.01-0.27-0.07-0.29c-0.55-0.21-0.14-0.77-0.4-1.07c0.15-0.12,0.29-0.25,0.45-0.34
	c0.15-0.08,0.33-0.1,0.59-0.17c-0.31-0.14-0.49-0.22-0.67-0.3c0.16-0.34,0.28-0.7,0.49-1.01c0.91-1.29,2.35-1.69,3.73-2.22
	c0.48-0.18,0.94-0.45,1.39-0.72c0.61-0.37,1.17-0.86,1.96-0.67c0.25,0.06,0.51,0.17,0.7,0.32c0.95,0.77,1.98,1.06,3.19,0.75
	c0.71-0.18,1.43-0.27,2.15-0.4c0-0.06,0.01-0.13,0.01-0.19c-1.71-0.63-3.28-1.62-5.15-1.86c-0.48-0.06-0.94-0.29-1.42-0.36
	c-1.25-0.19-2.32-0.83-3.5-1.21c-0.12-0.04-0.24-0.04-0.35-0.09c-0.16-0.07-0.31-0.17-0.46-0.26c0.12-0.14,0.2-0.34,0.35-0.4
	c0.39-0.16,0.81-0.27,1.22-0.39c0.29-0.09,0.58-0.19,0.88-0.26c0.69-0.17,1.38-0.43,2.09-0.47c1.22-0.07,2.38-0.31,3.52-0.76
	c1.13-0.44,1.64-0.19,2.07,0.94c0.44,1.13,1.18,1.9,2.38,2.23c1.63,0.45,3.27,0.92,4.87,1.46c0.95,0.32,1.85,0.78,2.69,1.14
	c0.76-1.84,1.57-3.76,2.36-5.7c0.19-0.47,0.39-0.95,0.47-1.44c0.06-0.38-0.01-0.8-0.12-1.17c-0.56-1.89-0.54-3.75,0.4-5.51
	c0.47-0.89,1.11-1.66,2.12-2.03c0.58-0.21,0.44-0.79,0.55-1.21c0.14-0.59-0.51-2.31-0.91-2.72c-0.12,0.14-0.24,0.28-0.37,0.42
	c-0.04-0.03-0.09-0.5-0.13-0.53c0-0.22,0,0,0-0.2c-0.23-0.07-0.03-0.01-0.23-0.07c0.1-0.2-0.2-0.52-0.08-0.75
	c-0.15-0.1-0.12-0.08-0.33-0.22c0.42-0.45-0.11-1.01-0.33-1.37c-0.65-1.06-1.28-2.16-2.53-2.66c-0.09-0.04-0.19-0.1-0.25-0.18
	c-0.59-0.8-1.53-1.15-2.26-1.76c-0.54-0.45-1.07-0.92-1.51-1.46c-1.22-1.47-2.65-2.66-4.38-3.49c-1.75-0.84-3.3-2-4.89-3.1
	c-0.75-0.52-1.62-0.93-2.49-1.23c-0.52-0.18-1.15-0.09-1.73-0.08c-0.59,0.02-0.96-0.15-1.09-0.79c-0.09-0.44-0.32-0.84-0.45-1.27
	c-0.34-1.11,0.26-1.43,1.09-1.66c1.1-0.3,1.68,0.38,2.23,1.02c0.94,1.08,2.12,1.71,3.42,2.18c1.5,0.54,3.02,1.04,4.51,1.61
	c0.6,0.23,1.16,0.58,1.72,0.88c0.01-0.61-0.44-1.11-1.18-1.27c-0.84-0.19-0.97-0.27-0.97-1.07c0-0.41-0.16-0.65-0.44-0.84
	c-0.46-0.32-0.93-0.64-1.43-0.89c-1.31-0.66-2.58-1.36-3.61-2.43c-1.44-1.5-3.25-2.52-4.93-3.7c-0.4-0.28-0.84-0.51-1.29-0.69
	c-0.22-0.08-0.56-0.06-0.77,0.06c-0.46,0.25-0.87,0.59-1.29,0.91c-0.29,0.22-0.57,0.25-0.86,0c-0.33-0.29-0.66-0.57-0.98-0.85
	C8.31,9.62,8.38,9.1,9.08,8.74C9.01,8.5,8.83,8.1,8.89,8.07c0.26-0.17,0.6-0.35,0.88-0.31c0.47,0.07,0.88,0.03,1.33-0.12
	c0.29-0.1,0.68-0.06,0.97,0.05c0.72,0.28,1.39,0.66,2.1,0.95c1.13,0.47,2.27,0.94,3.42,1.34c1.75,0.61,3.36,1.49,4.99,2.37
	c1.51,0.82,2.55,2.19,4.01,3.02c0.18,0.1,0.5,0.3,0.57,0.24c0.29-0.26,0.6-0.57,0.74-0.92"/>
</svg>
