<svg width="15" height="15" viewBox="0 0 15 15" fill="none" xmlns="http://www.w3.org/2000/svg">
<path d="M3.125 2.32276C3.125 3.17494 2.4375 3.8445 1.5625 3.8445C0.6875 3.8445 0 3.17494 0 2.32276C0 1.47059 0.6875 0.801025 1.5625 0.801025C2.4375 0.801025 3.125 1.47059 3.125 2.32276ZM3.125 5.06189H0V14.801H3.125V5.06189ZM8.125 5.06189H5V14.801H8.125V9.68798C8.125 6.82711 11.875 6.58363 11.875 9.68798V14.801H15V8.6532C15 3.8445 9.4375 4.02711 8.125 6.40102V5.06189Z" fill="#949494"/>
</svg>
